{
    "bc": {
        "webservice_key": "<OAUTH_KEY>",
        "webservice_secret": "<OAUTH_SECRET>",
        "server_uri": "<SERVER_BASE_URL>",
        "oauth_callback_uri": "http://127.0.0.1/my_apps_callback_uri",
        "token_file_name": "token.json",
        "jwt_service_user": "<JWT_SERVICE_USER>",
        "jwt_private_key_file": "jwt_private_key.pem"
    },
    "development": {
        "verify_ssl": true,
        "logging": {
            "response_json": false,
            "full_http_debug": false
        }
    },
    "demo": {
        "create_project": {
            "name": "New Project",
            "description": "Created using a webservice"
        },
        "create_document": {
            "space_id": null,
            "name": "test.txt",
            "content": "TEST CONTENT"
        },
        "create_document_from_file": {
            "space_id": null,
            "name": "higher-education-fact-sheet.pdf"
        },
        "revise_document": {
            "space_id": null,
            "previous_name": "higher-education-fact-sheet.pdf",
            "new_name": "Higher Education Fact Sheet NEW.pdf",
            "local_file_name_for_contents": "higher-education-fact-sheet.pdf"
        },
        "run_saved_search": {
            "saved_search_id": null
        },
        "get_metadata_type": {
            "container_uri": null
        },
        "set_metadata_type": {
            "artifact_id": null,
            "type_name": "Brochure"
        },
        "set_metadata": {
            "artifact_id": null,
            "text_field_1": {
                "field_title": "Name",
                "text": "Higher Education Fact Sheet.pdf"
            },
            "text_field_2": {
                "field_title": "Description",
                "text": "New description"
            },
            "drop_down_1": {
                "field_title": "Format",
                "items": ["Double right-angle / French fold"]
            }
        },
        "search_for_container_upload_document": {
            "space_name": "New Project",
            "document_name": "New document.txt",
            "content": "TEST CONTENT"
        },
        "search": {
            "query": "md_1202=Two and ((class: space) or (class:Folder))"
        },
        "expand": {
            "query": "(class: document)",
            "expand_key": "uri",
            "display_key": "document_size",
            "display_key_suffix": "bytes"
        }
	}
}
